# Abramowski+2011, arXiv:1103.3266
# Fig. 4 - Einasto profile
# mass [GeV] | sv [cm3/s]
286.7236 7.4579e-23
286.7163 7.2172e-23
286.709 6.9842e-23
286.7018 6.7587e-23
286.6945 6.5405e-23
286.6873 6.3294e-23
286.68 6.125e-23
286.6728 5.9273e-23
286.6655 5.7359e-23
286.6583 5.5508e-23
286.651 5.3716e-23
288.6881 5.1984e-23
288.6808 5.0306e-23
288.6735 4.8682e-23
288.6662 4.711e-23
288.6589 4.5589e-23
288.6516 4.4117e-23
290.7029 4.2695e-23
290.6955 4.1317e-23
292.7688 4.1319e-23
292.7614 3.9985e-23
292.754 3.8694e-23
292.7466 3.7445e-23
292.7391 3.6236e-23
292.7317 3.5066e-23
292.7243 3.3934e-23
292.7168 3.2839e-23
294.7971 3.178e-23
294.7896 3.0754e-23
294.7822 2.9761e-23
294.7748 2.8801e-23
294.7673 2.7871e-23
296.862 2.6972e-23
296.8546 2.6102e-23
298.9718 2.6103e-23
298.9642 2.526e-23
298.9566 2.4445e-23
298.9489 2.3656e-23
298.9415 2.2892e-23
298.9339 2.2153e-23
298.9263 2.1438e-23
301.0507 2.0747e-23
301.0431 2.0077e-23
301.0354 1.9429e-23
301.0278 1.8802e-23
303.1671 1.8196e-23
303.1594 1.7608e-23
303.1517 1.704e-23
305.3061 1.649e-23
305.2984 1.5958e-23
307.468 1.5444e-23
309.6531 1.4946e-23
309.6452 1.4463e-23
309.6374 1.3996e-23
309.6296 1.3545e-23
309.6217 1.3107e-23
309.6139 1.2684e-23
309.6059 1.2275e-23
309.5981 1.1878e-23
309.5904 1.1495e-23
311.7905 1.1124e-23
311.7826 1.0765e-23
313.9983 1.0418e-23
316.2298 1.0082e-23
316.2218 9.7569e-24
316.2138 9.4419e-24
316.2057 9.1371e-24
316.1977 8.8421e-24
316.1897 8.5566e-24
316.1817 8.2804e-24
318.4287 8.0135e-24
318.4205 7.7548e-24
318.4126 7.5044e-24
320.6754 7.2625e-24
322.9543 7.0284e-24
322.9461 6.8015e-24
322.938 6.582e-24
322.9298 6.3695e-24
322.9216 6.1638e-24
325.2165 5.9651e-24
325.2082 5.7726e-24
327.5194 5.5865e-24
327.511 5.4061e-24
329.8386 5.2319e-24
329.8302 5.063e-24
329.8218 4.8995e-24
332.1658 4.7416e-24
332.1574 4.5885e-24
334.5179 4.4406e-24
334.5093 4.2972e-24
336.8866 4.1587e-24
336.878 4.0245e-24
339.2721 3.8947e-24
339.2636 3.769e-24
341.6745 3.6475e-24
341.6659 3.5298e-24
344.094 3.416e-24
344.0853 3.3057e-24
346.5306 3.1991e-24
348.9931 3.096e-24
348.9844 2.9961e-24
351.4645 2.8995e-24
353.9622 2.806e-24
356.4776 2.7156e-24
356.4686 2.6279e-24
359.0019 2.5432e-24
361.5532 2.4612e-24
364.1226 2.3819e-24
364.1134 2.305e-24
366.701 2.2307e-24
369.307 2.1588e-24
371.9315 2.0892e-24
374.5747 2.0219e-24
374.5652 1.9566e-24
377.2271 1.8935e-24
379.9079 1.8325e-24
382.6077 1.7734e-24
385.3267 1.7162e-24
388.0651 1.6609e-24
390.8229 1.6074e-24
393.6002 1.5556e-24
396.3975 1.5054e-24
399.2145 1.4569e-24
402.0516 1.4099e-24
404.9088 1.3645e-24
407.7863 1.3205e-24
410.6947 1.3206e-24
413.6238 1.3206e-24
416.5737 1.3207e-24
419.5342 1.2781e-24
422.5157 1.2369e-24
425.5184 1.1971e-24
428.5423 1.1585e-24
431.5987 1.1585e-24
434.6659 1.1212e-24
437.766 1.1212e-24
440.8771 1.0851e-24
444.0102 1.0501e-24
447.1769 1.0502e-24
450.3548 1.0163e-24
453.5668 1.0164e-24
456.8016 1.0164e-24
456.7901 9.8361e-25
460.0363 9.5191e-25
463.3173 9.5196e-25
466.6099 9.2127e-25
469.9379 9.2132e-25
473.2775 8.9162e-25
476.653 8.9166e-25
480.0404 8.6292e-25
483.4641 8.6296e-25
486.9122 8.6301e-25
490.3725 8.3519e-25
493.8573 8.0827e-25
497.3796 8.0831e-25
500.9142 7.8225e-25
504.4868 7.8229e-25
508.072 7.5708e-25
511.6956 7.5711e-25
515.332 7.3271e-25
519.0074 7.3275e-25
522.6958 7.0913e-25
526.4237 7.0916e-25
530.1648 6.863e-25
533.946 6.8634e-25
537.7405 6.6421e-25
541.5756 6.6425e-25
545.4245 6.4284e-25
549.3145 6.4287e-25
553.2183 6.2215e-25
557.1639 6.2218e-25
561.1234 6.0212e-25
565.1254 6.0215e-25
569.1559 6.0218e-25
573.2006 5.8277e-25
577.2888 5.828e-25
581.4061 5.8283e-25
585.5379 5.6404e-25
589.714 5.6407e-25
593.9199 5.641e-25
598.1407 5.4592e-25
602.4067 5.4594e-25
606.7031 5.4597e-25
611.0147 5.2837e-25
615.3725 5.284e-25
615.3569 5.1134e-25
619.7457 5.1137e-25
624.1658 5.1139e-25
628.6174 5.1142e-25
633.0847 4.9493e-25
637.6 4.9496e-25
642.1474 4.9498e-25
646.7271 4.9501e-25
651.3233 4.7905e-25
655.9686 4.7908e-25
660.647 4.791e-25
665.3588 4.7913e-25
670.0872 4.6368e-25
674.8664 4.637e-25
679.6796 4.6373e-25
684.5271 4.6375e-25
689.3918 4.488e-25
694.3086 4.4883e-25
699.2605 4.4885e-25
704.2476 4.4887e-25
709.2704 4.4889e-25
714.3109 4.3442e-25
719.4054 4.3445e-25
724.5363 4.3447e-25
729.7038 4.3449e-25
734.8895 4.2048e-25
740.1308 4.2051e-25
745.4095 4.2053e-25
750.7258 4.2055e-25
756.08 4.2057e-25
761.4725 4.2059e-25
766.884 4.0703e-25
772.3534 4.0705e-25
777.8618 4.0707e-25
783.4097 4.071e-25
788.9971 4.0712e-25
794.6242 4.0714e-25
800.2713 3.9401e-25
805.979 3.9403e-25
811.7273 3.9405e-25
817.5166 3.9407e-25
823.3472 3.9409e-25
829.2194 3.9411e-25
835.1123 3.8141e-25
841.0684 3.8143e-25
847.067 3.8145e-25
853.1084 3.8147e-25
859.1928 3.8149e-25
865.3207 3.815e-25
871.4702 3.6921e-25
877.6856 3.6923e-25
883.9453 3.6924e-25
890.2497 3.6926e-25
896.599 3.6928e-25
902.9937 3.693e-25
909.4109 3.574e-25
915.8969 3.5741e-25
922.4292 3.5743e-25
929.008 3.5745e-25
935.6338 3.5747e-25
942.3068 3.5749e-25
949.0034 3.4596e-25
955.7718 3.4598e-25
962.5884 3.46e-25
969.4537 3.4602e-25
976.3679 3.4603e-25
983.3315 3.4605e-25
990.3195 3.349e-25
997.3827 3.3491e-25
1004.4961 3.3493e-25
1011.6602 3.3495e-25
1018.8756 3.3496e-25
1026.1423 3.3498e-25
1033.4607 3.35e-25
1040.8052 3.242e-25
1048.2283 3.2422e-25
1055.7044 3.2423e-25
1063.2338 3.2425e-25
1070.8169 3.2427e-25
1078.454 3.2428e-25
1086.1457 3.243e-25
1093.8645 3.1384e-25
1101.666 3.1386e-25
1109.5232 3.1388e-25
1117.4364 3.1389e-25
1125.4061 3.1391e-25
1133.4325 3.1392e-25
1141.5163 3.1394e-25
1149.6286 3.0382e-25
1157.8279 3.0384e-25
1166.0856 3.0385e-25
1174.4022 3.0387e-25
1182.7782 3.0388e-25
1191.2139 3.039e-25
1199.7098 3.0391e-25
1208.2662 3.0393e-25
1216.8837 3.0394e-25
1225.5626 3.0396e-25
1234.3034 3.0397e-25
1243.1066 3.0399e-25
1251.9726 3.04e-25
1260.9018 3.0402e-25
1269.8946 3.0404e-25
1278.9516 3.0405e-25
1288.0733 3.0407e-25
1297.2599 3.0408e-25
1306.5121 3.041e-25
1315.8303 3.0411e-25
1325.2149 3.0413e-25
1334.6665 3.0414e-25
1344.1854 3.0416e-25
1353.7723 3.0417e-25
1363.4275 3.0419e-25
1373.1516 3.0421e-25
1382.9451 3.0422e-25
1392.8084 3.0424e-25
1402.742 3.0425e-25
1412.7465 3.0427e-25
1422.8223 3.0428e-25
1433.0063 3.1445e-25
1443.2267 3.1447e-25
1453.5199 3.1448e-25
1463.8864 3.145e-25
1474.3271 3.1451e-25
1484.8422 3.1453e-25
1495.4322 3.1454e-25
1506.0977 3.1456e-25
1516.8394 3.1458e-25
1527.6577 3.1459e-25
1538.5531 3.1461e-25
1549.5262 3.1462e-25
1560.5775 3.1464e-25
1571.7077 3.1466e-25
1582.9173 3.1467e-25
1594.2068 3.1469e-25
1605.5768 3.147e-25
1617.028 3.1472e-25
1628.5608 3.1474e-25
1640.1758 3.1475e-25
1651.8737 3.1477e-25
1663.655 3.1478e-25
1675.5204 3.148e-25
1687.4704 3.1482e-25
1699.5056 3.1483e-25
1711.6266 3.1485e-25
1723.834 3.1486e-25
1736.1286 3.1488e-25
1748.5109 3.149e-25
1760.9814 3.1491e-25
1773.5409 3.1493e-25
1786.2352 3.2545e-25
1798.9748 3.2547e-25
1811.8053 3.2548e-25
1824.7271 3.255e-25
1837.7414 3.2552e-25
1850.8483 3.2553e-25
1864.0487 3.2555e-25
1877.3433 3.2557e-25
1890.7327 3.2558e-25
1904.2176 3.256e-25
1917.8472 3.3648e-25
1931.5255 3.3649e-25
1945.3013 3.3651e-25
1959.1754 3.3653e-25
1973.1484 3.3655e-25
1987.2211 3.3656e-25
2001.3942 3.3658e-25
2015.6683 3.366e-25
2030.0442 3.3661e-25
2044.5227 3.3663e-25
2059.1044 3.3665e-25
2073.7902 3.3666e-25
2088.5806 3.3668e-25
2103.4766 3.367e-25
2118.4788 3.3672e-25
2133.642 3.4797e-25
2148.8594 3.4798e-25
2164.1852 3.48e-25
2179.6204 3.4802e-25
2195.1657 3.4804e-25
2210.8218 3.4805e-25
2226.5896 3.4807e-25
2242.4699 3.4809e-25
2258.4634 3.4811e-25
2274.5709 3.4813e-25
2290.7934 3.4814e-25
2307.1316 3.4816e-25
2323.5862 3.4818e-25
2340.1583 3.482e-25
2356.8485 3.4821e-25
2373.6578 3.4823e-25
2390.587 3.4825e-25
2407.6368 3.4827e-25
2424.8083 3.4828e-25
2442.1023 3.483e-25
2459.5196 3.4832e-25
2477.0612 3.4834e-25
2494.7278 3.4835e-25
2512.5204 3.4837e-25
2530.504 3.6001e-25
2548.5518 3.6003e-25
2566.7284 3.6005e-25
2585.0345 3.6007e-25
2603.4712 3.6009e-25
2622.0394 3.601e-25
2640.7401 3.6012e-25
2659.6414 3.7215e-25
2678.6101 3.7217e-25
2697.7144 3.7219e-25
2716.9546 3.7221e-25
2736.3323 3.7223e-25
2755.9179 3.8467e-25
2775.5733 3.8469e-25
2795.369 3.8471e-25
2815.3058 3.8473e-25
2835.4567 3.9758e-25
2855.6794 3.976e-25
2876.0464 3.9762e-25
2896.5586 3.9764e-25
2917.2172 3.9766e-25
2938.023 3.9768e-25
2959.0522 4.1097e-25
2980.1565 4.1099e-25
3001.4112 4.1101e-25
3022.8176 4.1103e-25
3044.3766 4.1105e-25
3066.0894 4.1107e-25
3087.9569 4.1109e-25
3109.9807 4.1111e-25
3132.1613 4.1114e-25
3154.5002 4.1116e-25
3176.9984 4.1118e-25
3199.7381 4.2492e-25
3222.5589 4.2494e-25
3245.5425 4.2496e-25
3268.6901 4.2498e-25
3292.0027 4.25e-25
3315.4815 4.2502e-25
3339.1279 4.2504e-25
3362.9428 4.2507e-25
3386.9277 4.2509e-25
3411.0836 4.2511e-25
3435.4118 4.2513e-25
3459.9134 4.2515e-25
3484.6781 4.3936e-25
3509.5312 4.3938e-25
3534.5615 4.394e-25
3559.7703 4.3942e-25
3585.159 4.3945e-25
3610.8201 4.5413e-25
3636.5728 4.5415e-25
3662.5091 4.5418e-25
3688.6306 4.542e-25
3715.0323 4.6937e-25
3741.5283 4.694e-25
3768.2132 4.6942e-25
3795.0885 4.6945e-25
3822.1554 4.6947e-25
3849.5128 4.8516e-25
3876.9679 4.8518e-25
3904.6188 4.8521e-25
3932.467 4.8523e-25
3960.6139 5.0144e-25
3988.8615 5.0147e-25
4017.3104 5.0149e-25
4045.9623 5.0152e-25
4074.8184 5.0154e-25
4103.9844 5.183e-25
4133.2544 5.1833e-25
4162.733 5.1836e-25
4192.4222 5.1838e-25
4222.3229 5.1841e-25
4252.5446 5.3573e-25
4282.8742 5.3576e-25
4313.42 5.3578e-25
4344.1838 5.3581e-25
4375.1669 5.3584e-25
4406.4826 5.5374e-25
4437.91 5.5377e-25
4469.5615 5.538e-25
4501.439 5.5383e-25
4533.5436 5.5385e-25
4565.8774 5.5388e-25
4598.5581 5.7239e-25
4631.3554 5.7242e-25
4664.3867 5.7245e-25
4697.6536 5.7248e-25
4731.1577 5.725e-25
4764.9007 5.7253e-25
4799.006 5.9166e-25
4833.233 5.9169e-25
4867.704 5.9172e-25
4902.421 5.9175e-25
4937.3855 5.9178e-25
4972.5994 5.9181e-25
5008.1913 6.1159e-25
5043.9102 6.1162e-25
5079.8839 6.1165e-25
5116.1141 6.1168e-25
5152.6027 6.1171e-25
5189.3516 6.1174e-25
5226.4948 6.3218e-25
5263.7707 6.3221e-25
5301.3124 6.3225e-25
5339.1219 6.3228e-25
5377.201 6.3231e-25
5415.6888 6.5344e-25
5454.3141 6.5347e-25
5493.2147 6.535e-25
5532.3929 6.5354e-25
5571.9916 6.7537e-25
5611.7315 6.7541e-25
5651.755 6.7544e-25
5692.0638 6.7548e-25
5732.6602 6.7551e-25
5773.6922 6.9808e-25
5814.8708 6.9812e-25
5856.343 6.9815e-25
5898.111 6.9819e-25
5940.1769 6.9822e-25
5982.6943 7.2155e-25
6025.3634 7.2159e-25
6068.3369 7.2163e-25
6111.6169 7.2166e-25
6155.3614 7.4577e-25
6199.262 7.4581e-25
6243.4757 7.4585e-25
6288.0048 7.4589e-25
6333.0118 7.7081e-25
6378.1795 7.7085e-25
6423.6693 7.7089e-25
6469.4835 7.7093e-25
6515.7894 7.9669e-25
6562.2607 7.9673e-25
6609.0634 7.9677e-25
6656.1998 7.9681e-25
6703.8423 8.2343e-25
6751.6547 8.2347e-25
6799.8082 8.2351e-25
6848.305 8.2356e-25
6897.3225 8.5107e-25
6946.5148 8.5112e-25
6996.058 8.5116e-25
7045.9546 8.512e-25
7096.207 8.5125e-25
7146.9988 8.7969e-25
7197.9719 8.7973e-25
7249.3085 8.7978e-25
7301.0113 8.7982e-25
7353.269 9.0922e-25
7405.7132 9.0927e-25
7458.5314 9.0931e-25
7511.7265 9.0936e-25
7565.3008 9.094e-25
7619.4502 9.3979e-25
7673.7928 9.3984e-25
7728.5231 9.3988e-25
7783.6436 9.3993e-25
7839.3558 9.7134e-25
7895.2669 9.7139e-25
7951.5767 9.7144e-25
8008.2881 9.7149e-25
8065.6082 1.0039e-24
8123.1329 1.004e-24
8181.0679 1.004e-24
8239.416 1.0041e-24
8298.3905 1.0376e-24
8357.5754 1.0377e-24
8417.1824 1.0378e-24
8477.2146 1.0378e-24
8537.8911 1.0725e-24
8598.7841 1.0725e-24
8660.1115 1.0726e-24
8721.8761 1.0726e-24
8784.3039 1.1085e-24
8846.9544 1.1085e-24
8910.0518 1.1086e-24
8973.5991 1.1087e-24
9037.5997 1.1087e-24
9102.2872 1.1458e-24
9167.2056 1.1458e-24
9232.587 1.1459e-24
9298.4346 1.1459e-24
9364.9891 1.1842e-24
9431.7811 1.1843e-24
9499.0495 1.1843e-24
9566.7976 1.1844e-24
9635.029 1.1845e-24
9703.9926 1.224e-24
9773.2024 1.2241e-24
9842.9059 1.2242e-24
9913.3574 1.2651e-24
