3.000000119209289551e-01 3.499999940395355225e-01 7.699435472064712624e-09 9.586446396317076562e+13 -2.256668711431817969e+13 -2.792939170880978125e+13 -3.264105384196950391e+13 -4.152541557656225000e+13 -3.968787757994348438e+13 -3.378248073744285938e+13 -4.204484014599423438e+13 -2.855720019126284766e+13 -4.427918554210596875e+13 -1.328712557552246094e+13 -1.478462744967584473e+12 9.565875338883669922e+12 3.043648847265414844e+13 5.820467331619268750e+13 8.365820281421245312e+13 8.458790083069023438e+13 6.136923070367312500e+13 1.791038660721770630e+11 1.472393292448090938e+14 1.793060209880283750e+14 1.349140685351692500e+14 -3.246537463586436875e+14 -5.987149503338537500e+14
3.499999940395355225e-01 4.000000059604644775e-01 4.620571717042414344e-08 -2.256668711431817188e+13 2.220750812119735625e+14 -3.902873546004033594e+13 -4.728883229768720312e+13 -5.789910474634325000e+13 -5.858414506266659375e+13 -5.299592685854796875e+13 -6.519954878040130469e+13 -4.840615497275403906e+13 -7.041787268305292188e+13 -3.183445366252869922e+13 -1.653770166766730664e+13 -1.034350821180882617e+13 1.476872379349533936e+12 3.953273774103290625e+13 7.365624210957332812e+13 7.789749407533570312e+13 7.928043258989356250e+13 -9.847120005811562500e+12 1.498580899968048750e+14 2.290244235740332500e+14 1.895481081962896875e+14 -3.913017772649861250e+14 -5.578467960631715625e+14
4.000000059604644775e-01 4.499999880790710449e-01 3.860964926363065717e-08 -2.792939170880978906e+13 -3.902873546004029688e+13 4.509852772579565000e+14 -6.988490664279589844e+13 -7.510422088135403125e+13 -8.240775637240351562e+13 -8.205996648897475000e+13 -9.601463658045689062e+13 -7.880270293564498438e+13 -9.748511670419504688e+13 -5.339113642926243750e+13 -4.525998909646418750e+13 -5.202633525677755469e+13 -8.231292034896643750e+13 -2.293586858252798047e+13 4.886476178143180469e+13 7.001006604570281250e+13 2.247734196523436875e+14 1.328218167103423750e+14 2.477949697245466875e+14 4.777068868531155000e+14 4.690803380640868125e+14 1.580813511415335938e+14 5.485131995931234375e+14
4.499999880790710449e-01 5.000000000000000000e-01 3.873517007381667509e-08 -3.264105384196955859e+13 -4.728883229768724219e+13 -6.988490664279603125e+13 8.099647184041402500e+14 -9.419538234280589062e+13 -1.141442591462323750e+14 -1.202619690360453906e+14 -1.392652373652911406e+14 -1.153220313680103438e+14 -1.358259351154810469e+14 -7.436567951051000000e+13 -6.773284575182678906e+13 -1.065848076965876406e+14 -2.217273151910104688e+14 -1.195077999717242188e+14 1.132976768515697656e+13 5.844642441495003906e+13 4.784297605536810625e+14 3.327256223796114375e+14 3.502136216542969375e+14 8.732751990679165000e+14 9.269649007674757500e+14 8.283225737687172500e+14 2.316389503039202000e+15
5.000000000000000000e-01 5.574511885643005371e-01 3.991049651535118092e-08 -4.152541557656223438e+13 -5.789910474634311719e+13 -7.510422088135396875e+13 -9.419538234280579688e+13 1.131130672335521750e+15 -1.289110742293991406e+14 -1.170495210783417812e+14 -1.529283785888060312e+14 -1.072967441799512969e+14 -1.784334957183057188e+14 -8.693568076221895312e+13 -2.911249698190549609e+13 -5.822556214716904688e+13 -9.205017311746529688e+13 1.019254005651524536e+12 5.104488753387035938e+13 5.771977650036964844e+13 1.054280679289319375e+14 -2.203365541863405312e+14 8.661440146249880371e+11 3.071996745874455000e+14 2.904660352652391875e+14 -1.553614801921924500e+15 -1.224595471008973500e+15
5.574511885643005371e-01 6.249930858612060547e-01 9.341313027003606152e-08 -3.968787757994346875e+13 -5.858414506266649219e+13 -8.240775637240342188e+13 -1.141442591462325781e+14 -1.289110742293993438e+14 1.494988420766491250e+15 -1.560567891485100000e+14 -2.095070209922007500e+14 -1.414463019653217812e+14 -2.465699398890455625e+14 -1.189732009379667031e+14 -2.801932349568675391e+13 -1.339502706879787969e+14 -3.102590228269038125e+14 -1.563757225723269688e+14 -7.362353796299112500e+13 -4.700209509815944531e+13 2.884701936486556875e+14 -2.668913638099285000e+14 -2.425162033610852188e+14 5.023677323628564375e+14 6.095498113391888750e+14 -1.895932164243356500e+15 1.813352878923722812e+14
6.249930858612060547e-01 7.050811648368835449e-01 1.069013638612025168e-07 -3.378248073744285547e+13 -5.299592685854794531e+13 -8.205996648897493750e+13 -1.202619690360450000e+14 -1.170495210783419219e+14 -1.560567891485092500e+14 2.050910792826790000e+15 -2.073556506559768125e+14 -2.012138862125896250e+14 -2.358135745440995000e+14 -2.165035894995427500e+14 -2.107462760181083125e+14 -3.008284063809156875e+14 -4.829702291000066250e+14 -4.123131318104807500e+14 -3.410347917458374375e+14 -2.908190870402023750e+14 1.613157399429861562e+14 -1.749200200733318164e+13 -2.331299892081393125e+14 3.484614377856728750e+14 5.304766989392266250e+14 4.085251103962337500e+14 2.673120026372730000e+15
7.050811648368835449e-01 8.009547591209411621e-01 8.184325530541902301e-08 -4.204484014599423438e+13 -6.519954878040128906e+13 -9.601463658045664062e+13 -1.392652373652911719e+14 -1.529283785888060625e+14 -2.095070209922008125e+14 -2.073556506559762812e+14 2.734930831016138500e+15 -1.994400596279770312e+14 -3.368593841703198750e+14 -1.967739164061175000e+14 -8.038966614444215625e+13 -2.514390642405276875e+14 -5.331403591991330000e+14 -3.505967902701939375e+14 -2.727943715897546875e+14 -2.353518419206469375e+14 2.609724485584140625e+14 -4.705934921058349375e+14 -6.230670483012928750e+14 4.049756576050498750e+14 6.272952383143890000e+14 -2.484634153040546000e+15 8.541656698542987500e+14
8.009547591209411621e-01 9.169544577598571777e-01 1.072873751013050447e-07 -2.855720019126300781e+13 -4.840615497275408594e+13 -7.880270293564490625e+13 -1.153220313680103438e+14 -1.072967441799506406e+14 -1.414463019653219688e+14 -2.012138862125880312e+14 -1.994400596279756250e+14 3.750985195485447000e+15 -2.415551141352362188e+14 -3.994268918038025000e+14 -5.004726355992705000e+14 -5.433094730760334375e+14 -6.331110827319893750e+14 -7.393520310541347500e+14 -7.880451052642822500e+14 -7.419905542048346250e+14 -5.170671809059915000e+14 -1.596024850350863750e+14 -6.005072504852213750e+14 -6.210147819524995000e+14 -3.854013555974729375e+14 2.136410020095244000e+15 3.307532848529541000e+15
9.169544577598571777e-01 1.058999538421630859e+00 1.014495993139748639e-07 -4.427918554210592969e+13 -7.041787268305287500e+13 -9.748511670419501562e+13 -1.358259351154810781e+14 -1.784334957183054688e+14 -2.465699398890461562e+14 -2.358135745441003438e+14 -3.368593841703196875e+14 -2.415551141352340312e+14 5.004755329778425000e+15 -3.125982994576450000e+14 -1.237941383576664844e+14 -3.486750337325991875e+14 -6.266896648162810000e+14 -4.732857797482095625e+14 -5.477843313901833125e+14 -5.563117509485136250e+14 -4.270959737152415000e+14 -1.464569880406476500e+15 -1.652765047525678750e+15 -7.465306351057492500e+14 -4.645452031486079375e+14 -5.890472589663179000e+15 -2.833570998351848500e+15
1.058999538421630859e+00 1.235321879386901855e+00 1.039174946263922419e-07 -1.328712557552217188e+13 -3.183445366252887109e+13 -5.339113642926270312e+13 -7.436567951051073438e+13 -8.693568076221906250e+13 -1.189732009379679062e+14 -2.165035894995437500e+14 -1.967739164061166875e+14 -3.994268918038026875e+14 -3.125982994576439375e+14 6.851507419939739000e+15 -8.821166341420720000e+14 -9.011112010379903750e+14 -8.360033266591111250e+14 -1.223270000651608500e+15 -1.598844011806619500e+15 -1.613324915631315000e+15 -2.128789264817783500e+15 -1.319001092822418000e+15 -2.084300866268142000e+15 -3.134382105461835000e+15 -2.794309518572834000e+15 1.057170167277792000e+15 1.455647804876972812e+14
1.235321879386901855e+00 1.457629799842834473e+00 1.033538498957927381e-07 -1.478462744967735596e+12 -1.653770166766707422e+13 -4.525998909646414062e+13 -6.773284575182623438e+13 -2.911249698190570703e+13 -2.801932349568652344e+13 -2.107462760181061875e+14 -8.038966614444342188e+13 -5.004726355992691250e+14 -1.237941383576672188e+14 -8.821166341420793750e+14 8.977015564482273000e+15 -1.207596441276777750e+15 -9.303373575102417500e+14 -1.632209153499020500e+15 -2.015298873806705000e+15 -1.972301594474498500e+15 -2.443031468271959000e+15 -6.201130495145314062e+13 -1.153124046142354000e+15 -3.301646062878860000e+15 -2.982303510693771500e+15 9.721532778003828000e+15 6.645655856874013000e+15
1.457629799842834473e+00 1.743009448051452637e+00 8.510327427182723837e-08 9.565875338883554688e+12 -1.034350821180872852e+13 -5.202633525677805469e+13 -1.065848076965871719e+14 -5.822556214716866406e+13 -1.339502706879775000e+14 -3.008284063809133750e+14 -2.514390642405269062e+14 -5.433094730760338750e+14 -3.486750337326003750e+14 -9.011112010379958750e+14 -1.207596441276782250e+15 1.277243467143140200e+16 -1.521005844335008750e+15 -1.961741965725371250e+15 -2.261823279867388000e+15 -2.182152591894185750e+15 -1.843218200855341250e+15 -5.928353299945502500e+14 -2.205853895197067000e+15 -2.774282996489186000e+15 -2.078552770009615750e+15 6.098712503071535000e+15 8.796101730095699000e+15
1.743009448051452637e+00 2.117148160934448242e+00 9.351309229821551297e-08 3.043648847265416406e+13 1.476872379349496094e+12 -8.231292034896564062e+13 -2.217273151910106875e+14 -9.205017311746643750e+13 -3.102590228269041250e+14 -4.829702291000075625e+14 -5.331403591991321875e+14 -6.331110827319862500e+14 -6.266896648162806250e+14 -8.360033266591113750e+14 -9.303373575102367500e+14 -1.521005844335006500e+15 1.659504908877671600e+16 -2.630218989820281500e+15 -2.483208880040795500e+15 -2.224259485221386000e+15 5.423954025139261875e+14 2.610889977078293438e+14 -2.500384875592703000e+15 3.261650261419350000e+14 1.743472218546174750e+15 6.344107258423847000e+15 2.160698451343882400e+16
2.117148160934448242e+00 2.620038032531738281e+00 7.572098317954291172e-08 5.820467331619300000e+13 3.953273774103302344e+13 -2.293586858252775781e+13 -1.195077999717250469e+14 1.019254005650845947e+12 -1.563757225723270625e+14 -4.123131318104858125e+14 -3.505967902701953750e+14 -7.393520310541417500e+14 -4.732857797482088125e+14 -1.223270000651598000e+15 -1.632209153499017000e+15 -1.961741965725372250e+15 -2.630218989820276500e+15 2.406730555776964400e+16 -3.456350467868132000e+15 -3.277480325523723000e+15 -1.882555131882881750e+15 -4.017664439571039375e+14 -3.410452784907299500e+15 -3.165208539228652500e+15 -1.842913995247439250e+15 1.013288726157351400e+16 1.876789130734046400e+16
2.620038032531738281e+00 3.316585779190063477e+00 6.334869994622982308e-08 8.365820281421207812e+13 7.365624210957253125e+13 4.886476178143115625e+13 1.132976768515713672e+13 5.104488753387158594e+13 -7.362353796299123438e+13 -3.410347917458389375e+14 -2.727943715897526562e+14 -7.880451052642802500e+14 -5.477843313901805625e+14 -1.598844011806624750e+15 -2.015298873806700250e+15 -2.261823279867387500e+15 -2.483208880040783500e+15 -3.456350467868145500e+15 3.453623508733492400e+16 -4.453639099958563500e+15 -5.040267134615596000e+15 -3.182287996066864500e+15 -6.229585028197255000e+15 -8.138468235495001000e+15 -6.858655210046585000e+15 3.723650770114749000e+15 6.280640955552852000e+15
3.316585779190063477e+00 4.317572593688964844e+00 5.384084875281739645e-08 8.458790083069057812e+13 7.789749407533625000e+13 7.001006604570227344e+13 5.844642441494982812e+13 5.771977650036862500e+13 -4.700209509815941406e+13 -2.908190870401995000e+14 -2.353518419206526875e+14 -7.419905542048302500e+14 -5.563117509485178125e+14 -1.613324915631295250e+15 -1.972301594474514250e+15 -2.182152591894182750e+15 -2.224259485221385250e+15 -3.277480325523733500e+15 -4.453639099958571000e+15 4.942372696744745600e+16 -5.879879769854908000e+15 -4.151729290320146000e+15 -6.938927716429153000e+15 -9.464079176758272000e+15 -8.301772780876641000e+15 1.275925016042663125e+14 2.225604397514108750e+14
4.317572593688964844e+00 5.824226379394531250e+00 4.151011671046213566e-08 6.136923070367314062e+13 7.928043258989348438e+13 2.247734196523439375e+14 4.784297605536811250e+14 1.054280679289336094e+14 2.884701936486542500e+14 1.613157399429845000e+14 2.609724485584161250e+14 -5.170671809059970000e+14 -4.270959737152342500e+14 -2.128789264817792500e+15 -2.443031468271952500e+15 -1.843218200855355750e+15 5.423954025139247500e+14 -1.882555131882855000e+15 -5.040267134615595000e+15 -5.879879769854871000e+15 6.459022273409061600e+16 -1.228317325850186200e+16 -1.234814347842387000e+16 -2.355708467737645200e+16 -2.387217970458043200e+16 -2.362799549019661200e+16 -5.539873866001670400e+16
5.824226379394531250e+00 8.232172012329101562e+00 2.074741544470931774e-08 1.791038660721810608e+11 -9.847120005811197266e+12 1.328218167103429844e+14 3.327256223796131875e+14 -2.203365541863414062e+14 -2.668913638099319688e+14 -1.749200200733245508e+13 -4.705934921058344375e+14 -1.596024850350767500e+14 -1.464569880406479000e+15 -1.319001092822410000e+15 -6.201130495146294531e+13 -5.928353299945635000e+14 2.610889977078261562e+14 -4.017664439571171875e+14 -3.182287996066868500e+15 -4.151729290320124000e+15 -1.228317325850185000e+16 1.064095610165804000e+17 -1.621345463951936800e+16 -2.041296468033512800e+16 -2.025832796608411200e+16 -6.125810107528353600e+16 -7.599463386785584000e+16
8.232172012329101562e+00 1.240464878082275391e+01 2.003852518637464703e-08 1.472393292448099375e+14 1.498580899968040938e+14 2.477949697245468438e+14 3.502136216542971875e+14 8.661440146240443115e+11 -2.425162033610822188e+14 -2.331299892081384062e+14 -6.230670483012946250e+14 -6.005072504852232500e+14 -1.652765047525684000e+15 -2.084300866268134000e+15 -1.153124046142366250e+15 -2.205853895197073250e+15 -2.500384875592694500e+15 -3.410452784907313000e+15 -6.229585028197223000e+15 -6.938927716429183000e+15 -1.234814347842379200e+16 -1.621345463951937800e+16 1.679483150584566080e+17 -2.139348744765869200e+16 -1.964836631523088000e+16 -4.901592350680677600e+16 -4.893738325580695200e+16
1.240464878082275391e+01 2.051711654663085938e+01 7.655590778379370983e-09 1.793060209880280625e+14 2.290244235740341250e+14 4.777068868531152500e+14 8.732751990679152500e+14 3.071996745874455625e+14 5.023677323628608750e+14 3.484614377856658750e+14 4.049756576050500000e+14 -6.210147819525017500e+14 -7.465306351057462500e+14 -3.134382105461814000e+15 -3.301646062878870000e+15 -2.774282996489181500e+15 3.261650261419335000e+14 -3.165208539228607000e+15 -8.138468235495012000e+15 -9.464079176758340000e+15 -2.355708467737652000e+16 -2.041296468033518000e+16 -2.139348744765864400e+16 2.865625205221229440e+17 -3.701358215455320800e+16 -4.408446742441292000e+16 -8.634141060294793600e+16
2.051711654663085938e+01 3.936180877685546875e+01 5.076209352540996260e-09 1.349140685351692500e+14 1.895481081962908750e+14 4.690803380640875000e+14 9.269649007674758750e+14 2.904660352652348125e+14 6.095498113391883750e+14 5.304766989392274375e+14 6.272952383143878750e+14 -3.854013555974644375e+14 -4.645452031486110625e+14 -2.794309518572860500e+15 -2.982303510693752500e+15 -2.078552770009633500e+15 1.743472218546167000e+15 -1.842913995247418250e+15 -6.858655210046563000e+15 -8.301772780876626000e+15 -2.387217970458047600e+16 -2.025832796608405200e+16 -1.964836631523082400e+16 -3.701358215455333600e+16 5.343793589365441280e+17 -4.565744515408056000e+16 -9.690817152060376000e+16
3.936180877685546875e+01 9.933718872070312500e+01 1.883880122866299140e-09 -3.246537463586438125e+14 -3.913017772649861250e+14 1.580813511415332500e+14 8.283225737687163750e+14 -1.553614801921923500e+15 -1.895932164243352250e+15 4.085251103962375625e+14 -2.484634153040549000e+15 2.136410020095233000e+15 -5.890472589663194000e+15 1.057170167277787500e+15 9.721532778003842000e+15 6.098712503071576000e+15 6.344107258423832000e+15 1.013288726157350400e+16 3.723650770114746500e+15 1.275925016042844688e+14 -2.362799549019663200e+16 -6.125810107528352800e+16 -4.901592350680675200e+16 -4.408446742441296000e+16 -4.565744515408068800e+16 9.539082388755672320e+17 -3.208349536128304640e+17
9.933718872070312500e+01 5.000000000000000000e+02 2.975498860964005283e-10 -5.987149503338540000e+14 -5.578467960631701250e+14 5.485131995931243750e+14 2.316389503039199000e+15 -1.224595471008977500e+15 1.813352878923768750e+14 2.673120026372732000e+15 8.541656698542922500e+14 3.307532848529528500e+15 -2.833570998351849500e+15 1.455647804877106562e+14 6.645655856874018000e+15 8.796101730095728000e+15 2.160698451343882400e+16 1.876789130734044400e+16 6.280640955552822000e+15 2.225604397514088750e+14 -5.539873866001668000e+16 -7.599463386785584000e+16 -4.893738325580693600e+16 -8.634141060294801600e+16 -9.690817152060376000e+16 -3.208349536128304640e+17 2.560279398943835136e+18
