3.000000119209289551e-01 3.499999940395355225e-01 7.699435472064712624e-09 9.472134241182064062e+13 -2.380085978730802734e+13 -2.936761886351564453e+13 -3.420898659196732812e+13 -4.287458286655892188e+13 -3.638203860304049219e+13 -2.715777232304935547e+13 -3.607750782397163281e+13 -1.756892654898259375e+13 -2.810129729510172266e+13 -2.419496597253138672e+12 5.111485202518203125e+12 1.086479333069685938e+13 1.520482549256168750e+13 3.029846454200983594e+13 4.369583403249275781e+13 4.445581298894293750e+13 4.388693635347013281e+13 1.656470113597386719e+13 1.092585820929394531e+14 2.097404452220875312e+14 1.732288538182956562e+14 -3.292594130559847500e+14 -5.907766123056465000e+14
3.499999940395355225e-01 4.000000059604644775e-01 4.620571717042414344e-08 -2.380085978730736719e+13 2.191145612770161562e+14 -4.134504025891908594e+13 -5.037780039783548438e+13 -6.033279891167842188e+13 -5.517811442954566406e+13 -4.571904275624391406e+13 -5.888594387611645312e+13 -3.534316429413878125e+13 -4.851899961975693750e+13 -1.793200853253205469e+13 -7.343454856534908203e+12 -5.852283847100283203e+12 -2.346290982756280762e+12 1.485432101610314648e+13 3.062706405724909766e+13 3.301399593764148438e+13 4.455592189865929688e+13 2.129316215184484375e+12 9.420851454124675000e+13 2.298817062510261562e+14 2.058450542914092188e+14 -3.695505743992186875e+14 -4.717044687636748125e+14
4.000000059604644775e-01 4.499999880790710449e-01 3.860964926363065717e-08 -2.936761886351626953e+13 -4.134504025892042969e+13 4.429481678230286250e+14 -7.661089638562904688e+13 -7.944721689984737500e+13 -7.998710009751792188e+13 -7.471586165050362500e+13 -9.051219881103131250e+13 -6.296759195890522656e+13 -7.083837704935590625e+13 -3.685833681540169531e+13 -2.891973261458787891e+13 -3.719186496949381250e+13 -4.593865432909540625e+13 -2.297604195974007812e+13 8.530597024166626953e+12 1.896646525006430859e+13 1.077451792843286406e+14 1.046827505315940625e+14 1.404669241710015156e+14 4.453464541646402500e+14 4.696336522428016250e+14 2.978881628433475000e+14 9.323766443560602500e+14
4.499999880790710449e-01 5.000000000000000000e-01 3.873517007381667509e-08 -3.420898659196835156e+13 -5.037780039783385156e+13 -7.661089638563120312e+13 7.862251968830536250e+14 -1.008274980150776562e+14 -1.129083276461915000e+14 -1.126976930335626250e+14 -1.343439002470639531e+14 -9.647921032355539062e+13 -1.017008224276425469e+14 -5.680222234036297656e+13 -4.902562388306889062e+13 -7.767430147485687500e+13 -1.145362179279618750e+14 -7.811285453258740625e+13 -2.150284269440170703e+13 1.173565880436123291e+12 2.211868853508739375e+14 2.516538162902014375e+14 1.888479602633260938e+14 7.977134124236012500e+14 9.079176250847045000e+14 1.133331654720483750e+15 3.128564427067438000e+15
5.000000000000000000e-01 5.574511885643005371e-01 3.991049651535118092e-08 -4.287458286656021875e+13 -6.033279891167822656e+13 -7.944721689984793750e+13 -1.008274980150788594e+14 1.101570685486033125e+15 -1.232539876239740156e+14 -1.058070182499368438e+14 -1.423510482441388125e+14 -8.740897079918028125e+13 -1.293400632700743594e+14 -6.405042992996707031e+13 -2.799834353064710938e+13 -4.929385730460371875e+13 -5.651459701793360156e+13 -2.364961764674982031e+13 -5.998406257960283203e+12 -2.217493289580069336e+12 2.958718375623881641e+13 -1.734774942558142188e+14 -5.188405591267169531e+13 2.111740833763427812e+14 2.283016554070986875e+14 -1.502517509775405000e+15 -1.012795709322244375e+15
5.574511885643005371e-01 6.249930858612060547e-01 9.341313027003606152e-08 -3.638203860303520312e+13 -5.517811442954438281e+13 -7.998710009752129688e+13 -1.129083276461941719e+14 -1.232539876239783281e+14 1.304502513650577750e+15 -1.332582186746272344e+14 -1.810158079520262500e+14 -1.135488841625826719e+14 -1.669004863288683750e+14 -9.171799402665631250e+13 -4.353341546412007031e+13 -1.025858373154500000e+14 -1.484920698320562812e+14 -1.066493428506214688e+14 -8.302631657747242188e+13 -7.134777961615564062e+13 7.157495195834643750e+13 -2.081758542030147188e+14 -2.321333382940955938e+14 2.576040989911477188e+14 4.010371536347926875e+14 -1.529305686797338500e+15 6.809417218195340000e+14
6.249930858612060547e-01 7.050811648368835449e-01 1.069013638612025168e-07 -2.715777232305067969e+13 -4.571904275624412500e+13 -7.471586165050546875e+13 -1.126976930335616719e+14 -1.058070182499368438e+14 -1.332582186746205312e+14 1.625835482234520000e+15 -1.770144336693369688e+14 -1.609256867268267188e+14 -1.626864439023653125e+14 -1.620469832537907812e+14 -1.486316725233593750e+14 -2.049321643250513438e+14 -2.248267335158256875e+14 -2.304624323327749688e+14 -2.235908773493694062e+14 -2.044885606953545000e+14 -4.576143301879340625e+13 -1.134083853644262656e+14 -3.185055400607573750e+14 -7.984937555038301562e+13 1.336852703808739688e+14 6.441294927247996250e+14 3.029910234793952000e+15
7.050811648368835449e-01 8.009547591209411621e-01 8.184325530541902301e-08 -3.607750782397015625e+13 -5.888594387611568750e+13 -9.051219881103323438e+13 -1.343439002470586875e+14 -1.423510482441397188e+14 -1.810158079520360000e+14 -1.770144336693367812e+14 2.269975541605001500e+15 -1.644126971848640312e+14 -2.271039087124885938e+14 -1.556256265599152188e+14 -9.478539184268529688e+13 -1.869709077059060000e+14 -2.476612786592445625e+14 -2.130257265922582500e+14 -2.023426465043554688e+14 -1.870364007980451875e+14 -2.352872458946451172e+12 -3.816391079201439375e+14 -5.229291560549244375e+14 -1.719206496989026953e+13 2.355406613671020000e+14 -1.875328025012357250e+15 1.468228630019297750e+15
8.009547591209411621e-01 9.169544577598571777e-01 1.072873751013050447e-07 -1.756892654897975977e+13 -3.534316429413888281e+13 -6.296759195890123438e+13 -9.647921032355821875e+13 -8.740897079918610938e+13 -1.135488841625865000e+14 -1.609256867268241875e+14 -1.644126971848658438e+14 2.543961316836351500e+15 -1.662976936605099688e+14 -2.622697482314692812e+14 -2.799570260309110312e+14 -3.231582480955572500e+14 -2.801655591449985000e+14 -3.597506239158401250e+14 -4.092002970613780000e+14 -3.949433669821079375e+14 -3.688473422822372500e+14 -2.959517070781288125e+14 -6.194331409447193750e+14 -1.043793768837492125e+15 -8.097445054998341250e+14 1.813578137221203500e+15 3.153351100210268000e+15
9.169544577598571777e-01 1.058999538421630859e+00 1.014495993139748639e-07 -2.810129729510522266e+13 -4.851899961975617969e+13 -7.083837704935153125e+13 -1.017008224276356562e+14 -1.293400632700755312e+14 -1.669004863288746250e+14 -1.626864439023665000e+14 -2.271039087124895625e+14 -1.662976936605071250e+14 3.251668745502775000e+15 -1.969592938222032500e+14 -1.203115013164186094e+14 -2.149527108898983750e+14 -2.419037715438001875e+14 -2.396683832120478438e+14 -2.893360315499846250e+14 -2.917900328227641875e+14 -2.951009290315924375e+14 -8.555055613962631250e+14 -9.538067134207547500e+14 -9.756287249444883750e+14 -7.494225120179845000e+14 -3.816843681305917000e+15 -1.597309732141781250e+15
1.058999538421630859e+00 1.235321879386901855e+00 1.039174946263922419e-07 -2.419496597255303711e+12 -1.793200853253277734e+13 -3.685833681539728125e+13 -5.680222234037771094e+13 -6.405042992996671094e+13 -9.171799402663704688e+13 -1.620469832537920000e+14 -1.556256265599147500e+14 -2.622697482314670000e+14 -1.969592938222034375e+14 3.776484471983260000e+15 -4.082152866950588125e+14 -4.510454162202206875e+14 -3.340978130821803750e+14 -4.992611702138318750e+14 -6.492941495822927500e+14 -6.546918138290745000e+14 -8.938043154815446250e+14 -9.108786532656587500e+14 -1.304350485822322750e+15 -2.704210747324191500e+15 -2.458093919808980500e+15 7.498407681845552500e+14 5.044980961885920000e+14
1.235321879386901855e+00 1.457629799842834473e+00 1.033538498957927381e-07 5.111485202521619141e+12 -7.343454856534994141e+12 -2.891973261458754297e+13 -4.902562388307309375e+13 -2.799834353064487500e+13 -4.353341546412490625e+13 -1.486316725233606562e+14 -9.478539184268684375e+13 -2.799570260309094688e+14 -1.203115013164190000e+14 -4.082152866950630000e+14 4.414534725651432500e+15 -5.008501205712200000e+14 -3.352081942749051250e+14 -5.527974757287820625e+14 -6.922593089946710000e+14 -6.846876090718423750e+14 -8.906080607538825000e+14 -4.094729683128005000e+14 -9.405216990131613750e+14 -2.567239610230738000e+15 -2.340118406773493500e+15 5.077675724240352000e+15 4.060110636390519500e+15
1.457629799842834473e+00 1.743009448051452637e+00 8.510327427182723837e-08 1.086479333068879102e+13 -5.852283847096390625e+12 -3.719186496950092188e+13 -7.767430147484864062e+13 -4.929385730459968750e+13 -1.025858373154439688e+14 -2.049321643250470625e+14 -1.869709077059032812e+14 -3.231582480955571875e+14 -2.149527108898956875e+14 -4.510454162202255625e+14 -5.008501205712260000e+14 6.396787565511514000e+15 -4.909214748321100625e+14 -6.751069818144325000e+14 -8.071156319411750000e+14 -7.903707471490853750e+14 -8.211286223918366250e+14 -6.379994239621027500e+14 -1.359284379332277750e+15 -2.523694281392944500e+15 -2.080072628357047000e+15 3.564546648307785500e+15 5.671855916605335000e+15
1.743009448051452637e+00 2.117148160934448242e+00 9.351309229821551297e-08 1.520482549255990625e+13 -2.346290982757607422e+12 -4.593865432910028125e+13 -1.145362179279635312e+14 -5.651459701793150000e+13 -1.484920698320417500e+14 -2.248267335158262500e+14 -2.476612786592440938e+14 -2.801655591449960312e+14 -2.419037715437992188e+14 -3.340978130821793125e+14 -3.352081942749028125e+14 -4.909214748321125000e+14 6.611371182828524000e+15 -6.341059078498096250e+14 -6.562011059117092500e+14 -6.114771423008207500e+14 -1.857104477007518438e+14 -2.036252075341289375e+14 -1.073708823245482500e+15 -7.574253535801608750e+14 -1.054539986670328125e+14 3.149982776671119500e+15 1.016422005812869800e+16
2.117148160934448242e+00 2.620038032531738281e+00 7.572098317954291172e-08 3.029846454200951562e+13 1.485432101610287305e+13 -2.297604195973372656e+13 -7.811285453258853125e+13 -2.364961764675139062e+13 -1.066493428506228438e+14 -2.304624323327766562e+14 -2.130257265922598438e+14 -3.597506239158464375e+14 -2.396683832120446875e+14 -4.992611702138263125e+14 -5.527974757287853125e+14 -6.751069818144367500e+14 -6.341059078498048750e+14 9.801594538039138000e+15 -9.551839438069946250e+14 -9.243248127744861250e+14 -7.891540259765035000e+14 -5.835730809895502500e+14 -1.594363814947957000e+15 -2.547519598029767500e+15 -1.907268387256802250e+15 4.732079618442467000e+15 9.248553831348936000e+15
2.620038032531738281e+00 3.316585779190063477e+00 6.334869994622982308e-08 4.369583403250060938e+13 3.062706405724629688e+13 8.530597024157015625e+12 -2.150284269439307031e+13 -5.998406257964080078e+12 -8.302631657748095312e+13 -2.235908773493701875e+14 -2.023426465043589062e+14 -4.092002970613864375e+14 -2.893360315499787500e+14 -6.492941495822935000e+14 -6.922593089946663750e+14 -8.071156319411715000e+14 -6.562011059116973750e+14 -9.551839438069963750e+14 1.397074891062074600e+16 -1.235601216857600250e+15 -1.545701221304362500e+15 -1.588958556921289000e+15 -2.562136433226116000e+15 -4.926659343449185000e+15 -4.337765533550715000e+15 1.806549123301064250e+15 3.361031783429481000e+15
3.316585779190063477e+00 4.317572593688964844e+00 5.384084875281739645e-08 4.445581298893368750e+13 3.301399593764205078e+13 1.896646525006653125e+13 1.173565880440505127e+12 -2.217493289576239746e+12 -7.134777961615103125e+13 -2.044885606953540625e+14 -1.870364007980438750e+14 -3.949433669821058125e+14 -2.917900328227636875e+14 -6.546918138290631250e+14 -6.846876090718455000e+14 -7.903707471490871250e+14 -6.114771423008218750e+14 -9.243248127744851250e+14 -1.235601216857611750e+15 1.978883462331057200e+16 -1.719303110208299500e+15 -1.893460789156730500e+15 -2.760992015157301000e+15 -5.474337151945129000e+15 -4.952941759378646000e+15 1.885279352008057188e+14 4.931255210671625000e+14
4.317572593688964844e+00 5.824226379394531250e+00 4.151011671046213566e-08 4.388693635346423438e+13 4.455592189866035156e+13 1.077451792843284219e+14 2.211868853508886562e+14 2.958718375624482422e+13 7.157495195833262500e+13 -4.576143301878963281e+13 -2.352872458940961426e+12 -3.688473422822412500e+14 -2.951009290315929375e+14 -8.938043154815418750e+14 -8.906080607538823750e+14 -8.211286223918371250e+14 -1.857104477007445000e+14 -7.891540259765030000e+14 -1.545701221304356750e+15 -1.719303110208285250e+15 2.960871589824716400e+16 -4.945180747166191000e+15 -4.826337356559912000e+15 -1.239733451787977800e+16 -1.265914040691697600e+16 -1.179323555588984800e+16 -2.788568461145336400e+16
5.824226379394531250e+00 8.232172012329101562e+00 2.074741544470931774e-08 1.656470113595627148e+13 2.129316215183512207e+12 1.046827505316224688e+14 2.516538162901857188e+14 -1.734774942558189375e+14 -2.081758542029843125e+14 -1.134083853644236875e+14 -3.816391079201539375e+14 -2.959517070781287500e+14 -8.555055613962738750e+14 -9.108786532656557500e+14 -4.094729683128036875e+14 -6.379994239621145000e+14 -2.036252075341207500e+14 -5.835730809895465000e+14 -1.588958556921303500e+15 -1.893460789156738250e+15 -4.945180747166175000e+15 7.110886447997057600e+16 -8.453063974715362000e+15 -1.619403893696224600e+16 -1.637969548066405200e+16 -4.434962634931049600e+16 -5.866849658088463200e+16
8.232172012329101562e+00 1.240464878082275391e+01 2.003852518637464703e-08 1.092585820929441719e+14 9.420851454123982812e+13 1.404669241710242344e+14 1.888479602633143750e+14 -5.188405591266380469e+13 -2.321333382941166875e+14 -3.185055400607727500e+14 -5.229291560549308125e+14 -6.194331409447311250e+14 -9.538067134207605000e+14 -1.304350485822309500e+15 -9.405216990131542500e+14 -1.359284379332275000e+15 -1.073708823245485750e+15 -1.594363814947959500e+15 -2.562136433226127000e+15 -2.760992015157298500e+15 -4.826337356559899000e+15 -8.453063974715325000e+15 9.757964886140888000e+16 -1.617549423493596400e+16 -1.526820941517137000e+16 -3.047784694313964000e+16 -3.256471726431678800e+16
1.240464878082275391e+01 2.051711654663085938e+01 7.655590778379370983e-09 2.097404452221127812e+14 2.298817062510275625e+14 4.453464541646074375e+14 7.977134124235813750e+14 2.111740833763664062e+14 2.576040989911176875e+14 -7.984937555036828125e+13 -1.719206496989647070e+13 -1.043793768837494125e+15 -9.756287249445075000e+14 -2.704210747324146500e+15 -2.567239610230731500e+15 -2.523694281392912500e+15 -7.574253535801563750e+14 -2.547519598029766000e+15 -4.926659343449212000e+15 -5.474337151945094000e+15 -1.239733451787975200e+16 -1.619403893696225200e+16 -1.617549423493601200e+16 2.330716742829055360e+17 -3.936101772329521600e+16 -4.314007160902622400e+16 -8.710206266206982400e+16
2.051711654663085938e+01 3.936180877685546875e+01 5.076209352540996260e-09 1.732288538183230938e+14 2.058450542914078750e+14 4.696336522427541250e+14 9.079176250847370000e+14 2.283016554070804375e+14 4.010371536348047500e+14 1.336852703808610469e+14 2.355406613670940625e+14 -8.097445054998293750e+14 -7.494225120179692500e+14 -2.458093919808984000e+15 -2.340118406773523500e+15 -2.080072628357040500e+15 -1.054539986670443750e+14 -1.907268387256783750e+15 -4.337765533550716000e+15 -4.952941759378617000e+15 -1.265914040691699400e+16 -1.637969548066406000e+16 -1.526820941517139400e+16 -3.936101772329502400e+16 4.580300179566960640e+17 -4.690318250916680800e+16 -1.018056139097135040e+17
3.936180877685546875e+01 9.933718872070312500e+01 1.883880122866299140e-09 -3.292594130559664375e+14 -3.695505743992155625e+14 2.978881628433299375e+14 1.133331654720436250e+15 -1.502517509775411250e+15 -1.529305686797315750e+15 6.441294927247991250e+14 -1.875328025012383750e+15 1.813578137221190500e+15 -3.816843681305950000e+15 7.498407681845613750e+14 5.077675724240382000e+15 3.564546648307775500e+15 3.149982776671148000e+15 4.732079618442453000e+15 1.806549123301082000e+15 1.885279352008208438e+14 -1.179323555588985200e+16 -4.434962634931066400e+16 -3.047784694313949600e+16 -4.314007160902632000e+16 -4.690318250916681600e+16 8.845860624958502400e+17 -3.643774169521834880e+17
9.933718872070312500e+01 5.000000000000000000e+02 2.975498860964005283e-10 -5.907766123057406250e+14 -4.717044687636636875e+14 9.323766443560905000e+14 3.128564427067434000e+15 -1.012795709322241375e+15 6.809417218201966250e+14 3.029910234793971000e+15 1.468228630019299750e+15 3.153351100210274000e+15 -1.597309732141775250e+15 5.044980961886210625e+14 4.060110636390520500e+15 5.671855916605314000e+15 1.016422005812876000e+16 9.248553831348920000e+15 3.361031783429524000e+15 4.931255210670980000e+14 -2.788568461145343600e+16 -5.866849658088460000e+16 -3.256471726431663600e+16 -8.710206266206982400e+16 -1.018056139097132000e+17 -3.643774169521836800e+17 2.452072885056011776e+18
